Lab6/Part1/testbenches/anthony.vcd
$date
	Thu Jun 28 20:39:28 2018
$end
$version
	Icarus Verilog
$end
$timescale
	1ns
$end
$scope module full_add_n_bit_tb $end
$var wire 4 ! sum [3:0] $end
$var wire 1 " carry $end
$var reg 4 # a [3:0] $end
$var reg 4 $ b [3:0] $end
$upscope $end
$enddefinitions $end
#0
$dumpvars
b1 $
b0 #
0"
b1 !
$end
#20
b10 !
b1 #
#30
b11 !
b10 #
#40
b100 !
b11 #
#50
b101 !
b100 #
#60
b110 !
b101 #
#70
b111 !
b110 #
#80
b1000 !
b111 #
#90
b1001 !
b1000 #
#100
b1010 !
b1001 #
#110
b1011 !
b1010 #
#120
b1100 !
b1011 #
#130
b1101 !
b1100 #
#140
b1110 !
b1101 #
#150
b1111 !
b1110 #
#160
b0 !
1"
b1111 #
#170
b1 !
0"
b0 #
#180
b10 !
b1 #
#190
b11 !
b10 #
#200
b100 !
b11 #
#210
b101 !
b100 #
#220
b110 !
b101 #
#230
b111 !
b110 #
#240
b1000 !
b111 #
#250
b1001 !
b1000 #
#260
b1010 !
b1001 #
#270
b1011 !
b1010 #
#280
b1100 !
b1011 #
#290
b1101 !
b1100 #
#300
b1110 !
b1101 #
#310
b1111 !
b1110 #
#320
b0 !
1"
b1111 #
#330
b1 !
0"
b0 #
#340
b10 !
b1 #
#350
b11 !
b10 #
#360
b100 !
b11 #
#370
b101 !
b100 #
#380
b110 !
b101 #
#390
b111 !
b110 #
#400
b1000 !
b111 #
#410
b1001 !
b1000 #
#420
b1010 !
b1001 #
#430
b1011 !
b1010 #
#440
b1100 !
b1011 #
#450
b1101 !
b1100 #
#460
b1110 !
b1101 #
#470
b1111 !
b1110 #
#480
b0 !
1"
b1111 #
#490
b1 !
0"
b0 #
#500
b10 !
b1 #
#510
b11 !
b10 #
#520
b100 !
b11 #
#530
b101 !
b100 #
#540
b110 !
b101 #
#550
b111 !
b110 #
#560
b1000 !
b111 #
#570
b1001 !
b1000 #
#580
b1010 !
b1001 #
#590
b1011 !
b1010 #
#600
b1100 !
b1011 #
#610
b1101 !
b1100 #
#620
b1110 !
b1101 #
#630
b1111 !
b1110 #
#640
b0 !
1"
b1111 #
#650
b1 !
0"
b0 #
#660
b10 !
b1 #
#670
b11 !
b10 #
#680
b100 !
b11 #
#690
b101 !
b100 #
#700
b110 !
b101 #
#710
b111 !
b110 #
#720
b1000 !
b111 #
#730
b1001 !
b1000 #
#740
b1010 !
b1001 #
#750
b1011 !
b1010 #
#760
b1100 !
b1011 #
#770
b1101 !
b1100 #
#780
b1110 !
b1101 #
#790
b1111 !
b1110 #
#800
b0 !
1"
b1111 #
#810
b1 !
0"
b0 #
#820
b10 !
b1 #
#830
b11 !
b10 #
#840
b100 !
b11 #
#850
b101 !
b100 #
#860
b110 !
b101 #
#870
b111 !
b110 #
#880
b1000 !
b111 #
#890
b1001 !
b1000 #
#900
b1010 !
b1001 #
#910
b1011 !
b1010 #
#920
b1100 !
b1011 #
#930
b1101 !
b1100 #
#940
b1110 !
b1101 #
#950
b1111 !
b1110 #
#960
b0 !
1"
b1111 #
#970
b1 !
0"
b0 #
#980
b10 !
b1 #
#990
b11 !
b10 #
